…
Encounter Example

Here we test the encounter function with a vector we create called mons that we will use throughout the examples. Also, we are only requesting information of the red and fire red versions of the games.

# Create a vector of four Pokemon
mons <- c("charmander","pidgey","abra","beedrill") 

# Use the function and save results in an object
enc_example <- encounter(poke = mons, game = c("red","firered"))

# Print the object
print(enc_example)

## # A tibble: 91 x 7
##    Name       Location            Game    Chance Max_Level Min_Level Method
##    <chr>      <chr>               <chr>   <chr>  <chr>     <chr>     <chr> 
##  1 Charmander pallet-town-area    red     100    5         5         gift  
##  2 Charmander pallet-town-area    firered 100    5         5         gift  
##  3 Pidgey     kanto-route-12-area red     20     25        25        walk  
##  4 Pidgey     kanto-route-12-area red     15     23        23        walk  
##  5 Pidgey     kanto-route-12-area red     5      27        27        walk  
##  6 Pidgey     kanto-route-12-area firered 10     23        23        walk  
##  7 Pidgey     kanto-route-12-area firered 10     25        25        walk  
##  8 Pidgey     kanto-route-12-area firered 5      27        27        walk  
##  9 Pidgey     kanto-route-12-area firered 4      23        23        walk  
## 10 Pidgey     kanto-route-12-area firered 1      23        23        walk  
## # ... with 81 more rows
…
Leppa
6
28
20
Fighting
60

Poke API Function Example

Here we test the final function! poke_api if you remember this is a wrapper function that has all the other functions included inside of it. We are testing the encounter function with our mons vector and for only the games red and fire red. This is the exact same result as the encounter example from earlier.

# Use function
poke_api(func = "encounter", poke = mons, game = c("red","firered"))

## # A tibble: 91 x 7
##    Name       Location            Game    Chance Max_Level Min_Level Method
##    <chr>      <chr>               <chr>   <chr>  <chr>     <chr>     <chr> 
##  1 Charmander pallet-town-area    red     100    5         5         gift  
##  2 Charmander pallet-town-area    firered 100    5         5         gift  
##  3 Pidgey     kanto-route-12-area red     20     25        25        walk  
##  4 Pidgey     kanto-route-12-area red     15     23        23        walk  
##  5 Pidgey     kanto-route-12-area red     5      27        27        walk  
##  6 Pidgey     kanto-route-12-area firered 10     23        23        walk  
##  7 Pidgey     kanto-route-12-area firered 10     25        25        walk  
##  8 Pidgey     kanto-route-12-area firered 5      27        27        walk  
##  9 Pidgey     kanto-route-12-area firered 4      23        23        walk  
## 10 Pidgey     kanto-route-12-area firered 1      23        23        walk  
## # ... with 81 more rows
…
